{
    "createdBy": "Redirector v3.0.4",
    "createdAt": "2015-12-08T13:44:38.312Z",
    "redirects": [
        {
            "description": "Notepad++ - iRule help",
            "exampleUrl": "https://devcentral.f5.com/wiki/iRules.HTTP::host.ashx",
            "exampleResult": "https://devcentral.f5.com/wiki/iRules.HTTP__host.ashx",
            "error": null,
            "includePattern": "https://devcentral.f5.com/wiki/iRules.(.*)::(.*).ashx",
            "excludePattern": "",
            "redirectUrl": "https://devcentral.f5.com/wiki/iRules.$1__$2.ashx",
            "patternType": "R",
            "unescapeMatches": false,
            "escapeMatches": false,
            "disabled": false,
            "appliesTo": [
                "main_frame"
            ]
        }
    ]
}